<?xml version="1.0" encoding="UTF-8"?>
<svg width="163px" height="35px" viewBox="0 0 163 35" version="1.1" xmlns="http://www.w3.org/2000/svg" xmlns:xlink="http://www.w3.org/1999/xlink">
    <!-- Generator: Sketch 47.1 (45422) - http://www.bohemiancoding.com/sketch -->
    <title>Logo W</title>
    <desc>Created with Sketch.</desc>
    <defs></defs>
    <g id="Desktop" stroke="none" stroke-width="1" fill="none" fill-rule="evenodd">
        <g id="Home-Desktop" transform="translate(-156.000000, -29.000000)" fill="#FFFFFF">
            <g id="Home">
                <g id="Logo-W" transform="translate(156.000000, 29.000000)">
                    <polygon id="Fill-1" points="0 2.91666667 0 7.6390323 2.60351831 7.6390323 2.60351831 30.2778816 0 30.2778816 0 35 20.4166667 35 20.4166667 27.9631783 15.4836654 27.9631783 15.4836654 30.2778816 7.85604454 30.2778816 7.85604454 7.6390323 10.5966415 7.6390323 10.5966415 2.91666667"></polygon>
                    <path d="M31.3032128,1.94444444 C33.3196072,1.94444444 35,3.53134648 35,5.43582263 C35,7.34029879 33.3196072,8.88204064 31.3032128,8.88204064 C29.2866901,8.88204064 27.6542426,7.34029879 27.6542426,5.43582263 C27.6542426,3.53134648 29.2866901,1.94444444 31.3032128,1.94444444 L31.3032128,1.94444444 Z M34.2799232,35 L29.1425979,35 L29.1425979,18.3136168 L27.2222222,18.3136168 L27.2222222,13.9604419 L32.4554382,13.9604419 L34.2799232,15.683672 L34.2799232,35 Z" id="Fill-2"></path>
                    <path d="M39.8611111,13.51844 L42.4760496,13.51844 L42.4760496,9.39805887 C42.4760496,2.63883885 46.6162429,0 50.8001911,0 C51.366794,0 52.1077185,0.0924650519 52.5,0.231409862 L51.8462363,4.76837822 C51.8462363,4.76837822 51.5847541,4.7221457 51.1924726,4.7221457 C49.0133377,4.7221457 47.1393237,5.78697719 47.1393237,10.0463032 L47.1393237,13.51844 L50.3643874,13.51844 L50.3643874,17.963067 L47.1393237,17.963067 L47.1393237,35 L42.4760496,35 L42.4760496,17.963067 L39.8611111,17.963067 L39.8611111,13.51844 Z" id="Fill-4"></path>
                    <path d="M68.6044857,25.1077437 L60.3792452,25.1077437 C60.6550599,28.2825141 63.0904005,30.3989049 65.8934531,30.3989049 C67.4557077,30.3989049 69.064095,29.570752 70.166863,28.328584 L73.8888889,31.0431466 C72.0968296,33.2516772 69.3856743,35 65.8934531,35 C59.7818512,35 55.4166667,29.8469258 55.4166667,23.8653301 C55.4166667,17.838033 59.7818512,12.6388889 65.8474431,12.6388889 C69.018085,12.6388889 71.5913329,14.0652136 73.2916176,16.1817272 C72.4185316,17.0558272 71.361651,18.2062238 70.2127503,19.3105506 C69.339787,17.93005 67.6855124,17.0098801 65.8474431,17.0098801 C63.2283078,17.0098801 61.1145465,18.7582029 60.6090499,21.1968374 L68.6044857,21.1968374 L68.6044857,25.1077437 Z" id="Fill-6"></path>
                    <path d="M78.75,13.51844 L81.3650549,13.51844 L81.3650549,9.39805887 C81.3650549,2.63883885 85.5052481,0 89.6891963,0 C90.2557993,0 90.9966074,0.0924650519 91.3888889,0.231409862 L90.7352415,4.76837822 C90.7352415,4.76837822 90.473643,4.7221457 90.0813614,4.7221457 C87.9022266,4.7221457 86.0283289,5.78697719 86.0283289,10.0463032 L86.0283289,13.51844 L89.2533926,13.51844 L89.2533926,17.963067 L86.0283289,17.963067 L86.0283289,35 L81.3650549,35 L81.3650549,17.963067 L78.75,17.963067 L78.75,13.51844 Z" id="Fill-8"></path>
                    <path d="M112.613425,23.7964237 C112.613425,20.3385161 110.031507,17.3878028 106.481354,17.3878028 C102.88516,17.3878028 100.303119,20.3385161 100.303119,23.7964237 C100.303119,27.2543313 102.931325,30.2510861 106.481354,30.2510861 C109.985342,30.2510861 112.613425,27.2543313 112.613425,23.7964237 M117.638889,23.7964237 C117.638889,30.1127156 112.521095,35 106.481354,35 C100.395326,35 95.2777778,30.1127156 95.2777778,23.7964237 C95.2777778,17.4798856 100.395326,12.6388889 106.481354,12.6388889 C112.521095,12.6388889 117.638889,17.4798856 117.638889,23.7964237" id="Fill-10"></path>
                    <path d="M130.20953,35 L125.338565,35 L125.338565,17.6028773 L123.472222,17.6028773 L123.472222,13.0642834 L127.387105,13.0642834 L129.708759,15.4753996 C130.755758,13.9151988 132.667802,12.6388889 134.989213,12.6388889 C135.62648,12.6388889 136.354907,12.733435 137.083333,12.9697373 L135.67206,18.2647004 C135.17129,18.0756081 134.625061,17.9809357 134.12429,17.9809357 C132.12133,17.9809357 130.20953,19.4464641 130.20953,21.4792695 L130.20953,35 Z" id="Fill-13"></path>
                    <polygon id="Fill-15" points="148.56981 24.1211166 156.727354 13.6111111 161.414751 13.6111111 161.414751 14.5332444 155.195175 22.3234983 162.361111 33.340357 162.361111 35 157.944361 35 152.175462 26.0572026 148.56981 30.5286629 148.56981 35 143.747391 35 143.747391 18.0365385 141.944444 18.0365385 141.944444 13.6111111 145.775375 13.6111111 148.56981 16.4231745"></polygon>
                </g>
            </g>
        </g>
    </g>
</svg>