<?xml version="1.0" encoding="UTF-8"?>
<svg width="23px" height="14px" viewBox="0 0 23 14" version="1.1" xmlns="http://www.w3.org/2000/svg" xmlns:xlink="http://www.w3.org/1999/xlink">
    <!-- Generator: Sketch 47.1 (45422) - http://www.bohemiancoding.com/sketch -->
    <title>Be</title>
    <desc>Created with Sketch.</desc>
    <defs></defs>
    <g id="iphone" stroke="none" stroke-width="1" fill="none" fill-rule="evenodd">
        <g id="layout_iphone_8_plus" transform="translate(-364.000000, -673.000000)" fill="#FFFFFF">
            <g id="Home">
                <g id="Footer" transform="translate(21.000000, 645.000000)">
                    <g id="Sm-ico" transform="translate(248.000000, 28.000000)">
                        <g id="Be" transform="translate(95.000000, 0.000000)">
                            <path d="M3.60256,5.42192 C4.73736,5.42192 5.81896,5.43912 6.89936,5.41072 C7.20056,5.40312 7.51376,5.29712 7.79416,5.17352 C8.38816,4.91112 8.60256,4.40512 8.51216,3.60512 C8.44416,3.00072 8.11816,2.57192 7.49136,2.52152 C6.20816,2.41832 4.91816,2.39952 3.60256,2.34472 L3.60256,5.42192 Z M3.60256,11.36352 C4.83336,11.36352 6.03376,11.42072 7.22576,11.34632 C8.24336,11.28232 8.77896,10.59832 8.81176,9.55312 C8.84416,8.53272 8.41056,7.89472 7.35536,7.80192 C6.12176,7.69312 4.87176,7.77632 3.60256,7.77632 L3.60256,11.36352 Z M0.39976,0.02912 C2.32296,0.01752 4.24576,-0.00448 6.16896,0.00072 C6.87336,0.00272 7.58816,0.00632 8.27976,0.11992 C10.52976,0.48792 11.71096,2.32712 11.16536,4.53552 C10.95936,5.37032 10.43656,5.95032 9.60896,6.36352 C9.77576,6.45152 9.86736,6.50112 9.96096,6.54872 C11.17816,7.16832 11.81496,8.35192 11.71536,9.81152 C11.55976,12.09152 10.17176,13.57632 7.74456,13.71192 C5.30336,13.84872 2.84856,13.74832 0.39976,13.75192 L0.39976,0.02912 Z" id="Fill-1"></path>
                            <path d="M15.51704,7.40492 L19.91264,7.40492 C19.77184,6.04852 18.90664,5.29532 17.59024,5.34132 C16.38944,5.38332 15.54824,6.21732 15.51704,7.40492 L15.51704,7.40492 Z M22.61344,9.11172 C20.42544,9.11972 18.23824,9.12772 16.05064,9.13532 C15.85624,9.13572 15.66144,9.13532 15.47504,9.13532 C15.29464,10.27012 16.09624,11.37132 17.25224,11.55492 C18.22424,11.70892 19.13064,11.59372 19.73704,10.66572 C19.79544,10.57572 19.94304,10.49572 20.05104,10.49372 C20.82304,10.47892 21.59464,10.48572 22.47064,10.48572 C22.38864,10.75692 22.35104,10.99172 22.25024,11.19532 C21.76464,12.17652 21.02384,12.91732 19.99824,13.30092 C18.36904,13.91012 16.74784,13.86292 15.17904,13.06292 C14.02904,12.47652 13.28024,11.56492 13.00104,10.29252 C12.71824,9.00292 12.70824,7.71092 13.08744,6.44092 C13.72464,4.30892 15.67824,3.05452 18.04224,3.22452 C20.67944,3.41452 22.14584,4.79492 22.53824,7.45372 C22.55184,7.54732 22.58784,7.63772 22.61344,7.72972 L22.61344,9.11172 Z" id="Fill-4"></path>
                            <polygon id="Fill-6" points="14.9264 1.87452 20.4316 1.87452 20.4316 0.57652 14.9264 0.57652"></polygon>
                        </g>
                    </g>
                </g>
            </g>
        </g>
    </g>
</svg>